%YAML 1.1
%TAG !u! tag:unity3d.com,2011:
--- !u!1001 &8992431849276262426
PrefabInstance:
  m_ObjectHideFlags: 0
  serializedVersion: 2
  m_Modification:
    m_TransformParent: {fileID: 0}
    m_Modifications:
    - target: {fileID: 3397516762484537999, guid: 7e96d8a3477a6ad449beb6240099102d,
        type: 3}
      propertyPath: m_Name
      value: Cloud_L_07
      objectReference: {fileID: 0}
    - target: {fileID: 5462647019314611286, guid: 7e96d8a3477a6ad449beb6240099102d,
        type: 3}
      propertyPath: m_LocalPosition.x
      value: 60
      objectReference: {fileID: 0}
    - target: {fileID: 5462647019314611286, guid: 7e96d8a3477a6ad449beb6240099102d,
        type: 3}
      propertyPath: m_LocalPosition.y
      value: 0
      objectReference: {fileID: 0}
    - target: {fileID: 5462647019314611286, guid: 7e96d8a3477a6ad449beb6240099102d,
        type: 3}
      propertyPath: m_LocalPosition.z
      value: 0
      objectReference: {fileID: 0}
    - target: {fileID: 5462647019314611286, guid: 7e96d8a3477a6ad449beb6240099102d,
        type: 3}
      propertyPath: m_LocalRotation.x
      value: -0
      objectReference: {fileID: 0}
    - target: {fileID: 5462647019314611286, guid: 7e96d8a3477a6ad449beb6240099102d,
        type: 3}
      propertyPath: m_LocalRotation.y
      value: -0
      objectReference: {fileID: 0}
    - target: {fileID: 5462647019314611286, guid: 7e96d8a3477a6ad449beb6240099102d,
        type: 3}
      propertyPath: m_LocalRotation.z
      value: -0
      objectReference: {fileID: 0}
    - target: {fileID: 5462647019314611286, guid: 7e96d8a3477a6ad449beb6240099102d,
        type: 3}
      propertyPath: m_LocalRotation.w
      value: 1
      objectReference: {fileID: 0}
    - target: {fileID: 5462647019314611286, guid: 7e96d8a3477a6ad449beb6240099102d,
        type: 3}
      propertyPath: m_RootOrder
      value: 6
      objectReference: {fileID: 0}
    - target: {fileID: 5462647019314611286, guid: 7e96d8a3477a6ad449beb6240099102d,
        type: 3}
      propertyPath: m_LocalEulerAnglesHint.x
      value: 0
      objectReference: {fileID: 0}
    - target: {fileID: 5462647019314611286, guid: 7e96d8a3477a6ad449beb6240099102d,
        type: 3}
      propertyPath: m_LocalEulerAnglesHint.y
      value: 0
      objectReference: {fileID: 0}
    - target: {fileID: 5462647019314611286, guid: 7e96d8a3477a6ad449beb6240099102d,
        type: 3}
      propertyPath: m_LocalEulerAnglesHint.z
      value: 0
      objectReference: {fileID: 0}
    - target: {fileID: 7258812989238680564, guid: 7e96d8a3477a6ad449beb6240099102d,
        type: 3}
      propertyPath: m_Materials.Array.data[0]
      value: 
      objectReference: {fileID: 2100000, guid: c23daf8b7b106b847a932fa21cb0534d, type: 2}
    - target: {fileID: 8560178338443643924, guid: 7e96d8a3477a6ad449beb6240099102d,
        type: 3}
      propertyPath: m_RootOrder
      value: 0
      objectReference: {fileID: 0}
    - target: {fileID: 8560178338443643924, guid: 7e96d8a3477a6ad449beb6240099102d,
        type: 3}
      propertyPath: m_LocalPosition.x
      value: 60
      objectReference: {fileID: 0}
    - target: {fileID: 583740093574589566, guid: 7e96d8a3477a6ad449beb6240099102d,
        type: 3}
      propertyPath: m_Materials.Array.data[0]
      value: 
      objectReference: {fileID: 2100000, guid: c23daf8b7b106b847a932fa21cb0534d, type: 2}
    - target: {fileID: 8538350068514170975, guid: 7e96d8a3477a6ad449beb6240099102d,
        type: 3}
      propertyPath: m_Name
      value: Cloud_L_07 Variant
      objectReference: {fileID: 0}
    m_RemovedComponents: []
  m_SourcePrefab: {fileID: 100100000, guid: 7e96d8a3477a6ad449beb6240099102d, type: 3}
