%YAML 1.1
%TAG !u! tag:unity3d.com,2011:
--- !u!1001 &834416408834579189
PrefabInstance:
  m_ObjectHideFlags: 0
  serializedVersion: 2
  m_Modification:
    m_TransformParent: {fileID: 0}
    m_Modifications:
    - target: {fileID: 6472876877502701693, guid: 5b64c293b58947244a3c3176b831cc1d,
        type: 3}
      propertyPath: m_Name
      value: Cloud_L_02
      objectReference: {fileID: 0}
    - target: {fileID: 4969874786321253361, guid: 5b64c293b58947244a3c3176b831cc1d,
        type: 3}
      propertyPath: m_LocalPosition.x
      value: 10
      objectReference: {fileID: 0}
    - target: {fileID: 4969874786321253361, guid: 5b64c293b58947244a3c3176b831cc1d,
        type: 3}
      propertyPath: m_LocalPosition.y
      value: 0
      objectReference: {fileID: 0}
    - target: {fileID: 4969874786321253361, guid: 5b64c293b58947244a3c3176b831cc1d,
        type: 3}
      propertyPath: m_LocalPosition.z
      value: 0
      objectReference: {fileID: 0}
    - target: {fileID: 4969874786321253361, guid: 5b64c293b58947244a3c3176b831cc1d,
        type: 3}
      propertyPath: m_LocalRotation.x
      value: -0
      objectReference: {fileID: 0}
    - target: {fileID: 4969874786321253361, guid: 5b64c293b58947244a3c3176b831cc1d,
        type: 3}
      propertyPath: m_LocalRotation.y
      value: -0
      objectReference: {fileID: 0}
    - target: {fileID: 4969874786321253361, guid: 5b64c293b58947244a3c3176b831cc1d,
        type: 3}
      propertyPath: m_LocalRotation.z
      value: -0
      objectReference: {fileID: 0}
    - target: {fileID: 4969874786321253361, guid: 5b64c293b58947244a3c3176b831cc1d,
        type: 3}
      propertyPath: m_LocalRotation.w
      value: 1
      objectReference: {fileID: 0}
    - target: {fileID: 4969874786321253361, guid: 5b64c293b58947244a3c3176b831cc1d,
        type: 3}
      propertyPath: m_RootOrder
      value: 1
      objectReference: {fileID: 0}
    - target: {fileID: 4969874786321253361, guid: 5b64c293b58947244a3c3176b831cc1d,
        type: 3}
      propertyPath: m_LocalEulerAnglesHint.x
      value: 0
      objectReference: {fileID: 0}
    - target: {fileID: 4969874786321253361, guid: 5b64c293b58947244a3c3176b831cc1d,
        type: 3}
      propertyPath: m_LocalEulerAnglesHint.y
      value: 0
      objectReference: {fileID: 0}
    - target: {fileID: 4969874786321253361, guid: 5b64c293b58947244a3c3176b831cc1d,
        type: 3}
      propertyPath: m_LocalEulerAnglesHint.z
      value: 0
      objectReference: {fileID: 0}
    - target: {fileID: 7914993075456711469, guid: 5b64c293b58947244a3c3176b831cc1d,
        type: 3}
      propertyPath: m_Materials.Array.data[0]
      value: 
      objectReference: {fileID: 2100000, guid: ff951495daf33fb4097aeb68680732ed, type: 2}
    - target: {fileID: 3226908663572249799, guid: 5b64c293b58947244a3c3176b831cc1d,
        type: 3}
      propertyPath: m_RootOrder
      value: 0
      objectReference: {fileID: 0}
    - target: {fileID: 3226908663572249799, guid: 5b64c293b58947244a3c3176b831cc1d,
        type: 3}
      propertyPath: m_LocalPosition.x
      value: 10
      objectReference: {fileID: 0}
    - target: {fileID: 2623866484046591076, guid: 5b64c293b58947244a3c3176b831cc1d,
        type: 3}
      propertyPath: m_Materials.Array.data[0]
      value: 
      objectReference: {fileID: 2100000, guid: ff951495daf33fb4097aeb68680732ed, type: 2}
    - target: {fileID: 4489566833155492086, guid: 5b64c293b58947244a3c3176b831cc1d,
        type: 3}
      propertyPath: m_Name
      value: Cloud_L_02 Variant
      objectReference: {fileID: 0}
    m_RemovedComponents: []
  m_SourcePrefab: {fileID: 100100000, guid: 5b64c293b58947244a3c3176b831cc1d, type: 3}
