%YAML 1.1
%TAG !u! tag:unity3d.com,2011:
--- !u!1001 &1858721226140342869
PrefabInstance:
  m_ObjectHideFlags: 0
  serializedVersion: 2
  m_Modification:
    m_TransformParent: {fileID: 0}
    m_Modifications:
    - target: {fileID: 7120894126030530594, guid: 5fcfbf2ca857c8d4db651eaecbbdb212,
        type: 3}
      propertyPath: m_Name
      value: Cloud_L_08
      objectReference: {fileID: 0}
    - target: {fileID: 2369008926455033167, guid: 5fcfbf2ca857c8d4db651eaecbbdb212,
        type: 3}
      propertyPath: m_LocalPosition.x
      value: 70
      objectReference: {fileID: 0}
    - target: {fileID: 2369008926455033167, guid: 5fcfbf2ca857c8d4db651eaecbbdb212,
        type: 3}
      propertyPath: m_LocalPosition.y
      value: 0
      objectReference: {fileID: 0}
    - target: {fileID: 2369008926455033167, guid: 5fcfbf2ca857c8d4db651eaecbbdb212,
        type: 3}
      propertyPath: m_LocalPosition.z
      value: 0
      objectReference: {fileID: 0}
    - target: {fileID: 2369008926455033167, guid: 5fcfbf2ca857c8d4db651eaecbbdb212,
        type: 3}
      propertyPath: m_LocalRotation.x
      value: -0
      objectReference: {fileID: 0}
    - target: {fileID: 2369008926455033167, guid: 5fcfbf2ca857c8d4db651eaecbbdb212,
        type: 3}
      propertyPath: m_LocalRotation.y
      value: -0
      objectReference: {fileID: 0}
    - target: {fileID: 2369008926455033167, guid: 5fcfbf2ca857c8d4db651eaecbbdb212,
        type: 3}
      propertyPath: m_LocalRotation.z
      value: -0
      objectReference: {fileID: 0}
    - target: {fileID: 2369008926455033167, guid: 5fcfbf2ca857c8d4db651eaecbbdb212,
        type: 3}
      propertyPath: m_LocalRotation.w
      value: 1
      objectReference: {fileID: 0}
    - target: {fileID: 2369008926455033167, guid: 5fcfbf2ca857c8d4db651eaecbbdb212,
        type: 3}
      propertyPath: m_RootOrder
      value: 7
      objectReference: {fileID: 0}
    - target: {fileID: 2369008926455033167, guid: 5fcfbf2ca857c8d4db651eaecbbdb212,
        type: 3}
      propertyPath: m_LocalEulerAnglesHint.x
      value: 0
      objectReference: {fileID: 0}
    - target: {fileID: 2369008926455033167, guid: 5fcfbf2ca857c8d4db651eaecbbdb212,
        type: 3}
      propertyPath: m_LocalEulerAnglesHint.y
      value: 0
      objectReference: {fileID: 0}
    - target: {fileID: 2369008926455033167, guid: 5fcfbf2ca857c8d4db651eaecbbdb212,
        type: 3}
      propertyPath: m_LocalEulerAnglesHint.z
      value: 0
      objectReference: {fileID: 0}
    - target: {fileID: 692398170065602781, guid: 5fcfbf2ca857c8d4db651eaecbbdb212,
        type: 3}
      propertyPath: m_Materials.Array.data[0]
      value: 
      objectReference: {fileID: 2100000, guid: ff951495daf33fb4097aeb68680732ed, type: 2}
    - target: {fileID: 1653475814740414714, guid: 5fcfbf2ca857c8d4db651eaecbbdb212,
        type: 3}
      propertyPath: m_RootOrder
      value: 0
      objectReference: {fileID: 0}
    - target: {fileID: 1653475814740414714, guid: 5fcfbf2ca857c8d4db651eaecbbdb212,
        type: 3}
      propertyPath: m_LocalPosition.x
      value: 70
      objectReference: {fileID: 0}
    - target: {fileID: 6815169180938148331, guid: 5fcfbf2ca857c8d4db651eaecbbdb212,
        type: 3}
      propertyPath: m_Materials.Array.data[0]
      value: 
      objectReference: {fileID: 2100000, guid: ff951495daf33fb4097aeb68680732ed, type: 2}
    - target: {fileID: 6182900637592327903, guid: 5fcfbf2ca857c8d4db651eaecbbdb212,
        type: 3}
      propertyPath: m_Name
      value: Cloud_L_08 Variant
      objectReference: {fileID: 0}
    m_RemovedComponents: []
  m_SourcePrefab: {fileID: 100100000, guid: 5fcfbf2ca857c8d4db651eaecbbdb212, type: 3}
