%YAML 1.1
%TAG !u! tag:unity3d.com,2011:
--- !u!114 &-1177550059012736302
MonoBehaviour:
  m_ObjectHideFlags: 11
  m_CorrespondingSourceObject: {fileID: 0}
  m_PrefabInstance: {fileID: 0}
  m_PrefabAsset: {fileID: 0}
  m_GameObject: {fileID: 0}
  m_Enabled: 1
  m_EditorHideFlags: 0
  m_Script: {fileID: 11500000, guid: d0353a89b1f911e48b9e16bdc9f2e058, type: 3}
  m_Name: 
  m_EditorClassIdentifier: 
  version: 1
--- !u!21 &2100000
Material:
  serializedVersion: 6
  m_ObjectHideFlags: 0
  m_CorrespondingSourceObject: {fileID: 0}
  m_PrefabInstance: {fileID: 0}
  m_PrefabAsset: {fileID: 0}
  m_Name: M_Cloud_L_05
  m_Shader: {fileID: -6465566751694194690, guid: 53fe90e093454ee4caa8f9f4d819ba1c,
    type: 3}
  m_ShaderKeywords: 
  m_LightmapFlags: 4
  m_EnableInstancingVariants: 0
  m_DoubleSidedGI: 0
  m_CustomRenderQueue: -1
  stringTagMap: {}
  disabledShaderPasses: []
  m_SavedProperties:
    serializedVersion: 3
    m_TexEnvs:
    - Texture2D_1DE8A8AB:
        m_Texture: {fileID: 2800000, guid: 1f4cc177e25b1a646886238713a19d1c, type: 3}
        m_Scale: {x: 1, y: 1}
        m_Offset: {x: 0, y: 0}
    - Texture2D_27FD7F95:
        m_Texture: {fileID: 2800000, guid: 1eff6d0cfe3dc1b4ba19ae614d0a9425, type: 3}
        m_Scale: {x: 1, y: 1}
        m_Offset: {x: 0, y: 0}
    - _TexNoise:
        m_Texture: {fileID: 2800000, guid: bb1f6024fe7dfd542ac67c15923b498d, type: 3}
        m_Scale: {x: 1, y: 1}
        m_Offset: {x: 0, y: 0}
    - _TexToonRamp:
        m_Texture: {fileID: 2800000, guid: 8fe89e5a2afffbe47b2d6ed92b248512, type: 3}
        m_Scale: {x: 1, y: 1}
        m_Offset: {x: 0, y: 0}
    m_Floats:
    - Vector1_24AD96BF: 0.4
    - Vector1_44D50C1A: 1
    - Vector1_509FB0E6: 5
    - Vector1_7ABD5AC5: -0.5
    - Vector1_B80937A5: 0.25
    - Vector1_E4CC38DB: -1
    - _AO_Strength: 0
    - _BackLight_Strength: -2
    - _ColorFalloff: 0.75
    - _CoreDarkness: 0.25
    - _EdgeBrightness: 0.25
    - _FuzzyPower: 8
    - _HeigthOffset: 0
    - _NoisePower: 0
    - _NoiseStrength: 0.5
    - _NoiseTiling: 10
    - _Noise_Strength: 1
    - _RimPower: 0.1
    m_Colors:
    - Color_171CFD5E: {r: 0.59607846, g: 0.6470332, b: 0.6901961, a: 1}
    - Color_243C1702: {r: 0.4967515, g: 0.50331146, b: 0.57547164, a: 1}
    - _Color: {r: 0.6544144, g: 0.7266703, b: 0.8113208, a: 1}
    - _RimColor: {r: 0, g: 0, b: 0, a: 0}
    - _SecColor: {r: 0.74759704, g: 0.87985414, b: 0.9056604, a: 1}
