%YAML 1.1
%TAG !u! tag:unity3d.com,2011:
--- !u!114 &-1177550059012736302
MonoBehaviour:
  m_ObjectHideFlags: 11
  m_CorrespondingSourceObject: {fileID: 0}
  m_PrefabInstance: {fileID: 0}
  m_PrefabAsset: {fileID: 0}
  m_GameObject: {fileID: 0}
  m_Enabled: 1
  m_EditorHideFlags: 0
  m_Script: {fileID: 11500000, guid: d0353a89b1f911e48b9e16bdc9f2e058, type: 3}
  m_Name: 
  m_EditorClassIdentifier: 
  version: 1
--- !u!21 &2100000
Material:
  serializedVersion: 6
  m_ObjectHideFlags: 0
  m_CorrespondingSourceObject: {fileID: 0}
  m_PrefabInstance: {fileID: 0}
  m_PrefabAsset: {fileID: 0}
  m_Name: M_Cloud_L_03
  m_Shader: {fileID: 10703, guid: 0000000000000000f000000000000000, type: 0}
  m_ShaderKeywords: 
  m_LightmapFlags: 4
  m_EnableInstancingVariants: 0
  m_DoubleSidedGI: 0
  m_CustomRenderQueue: -1
  stringTagMap: {}
  disabledShaderPasses: []
  m_SavedProperties:
    serializedVersion: 3
    m_TexEnvs:
    - Texture2D_1DE8A8AB:
        m_Texture: {fileID: 2800000, guid: e893cfa8eb8501d4a99cc2171a3c86b9, type: 3}
        m_Scale: {x: 1, y: 1}
        m_Offset: {x: 0, y: 0}
    - Texture2D_27FD7F95:
        m_Texture: {fileID: 2800000, guid: 1eff6d0cfe3dc1b4ba19ae614d0a9425, type: 3}
        m_Scale: {x: 1, y: 1}
        m_Offset: {x: 0, y: 0}
    - _MainTex:
        m_Texture: {fileID: 2800000, guid: abf9d8ece1f4bc148890d3ab1ed95a54, type: 3}
        m_Scale: {x: 1, y: 1}
        m_Offset: {x: 0, y: 0}
    - _TexNoise:
        m_Texture: {fileID: 2800000, guid: bb1f6024fe7dfd542ac67c15923b498d, type: 3}
        m_Scale: {x: 1, y: 1}
        m_Offset: {x: 0, y: 0}
    - _TexToonRamp:
        m_Texture: {fileID: 2800000, guid: ff8b65bbe0577674b9758d32c1d5389e, type: 3}
        m_Scale: {x: 1, y: 1}
        m_Offset: {x: 0, y: 0}
    m_Floats:
    - Vector1_24AD96BF: 0.5
    - Vector1_44D50C1A: 4
    - Vector1_509FB0E6: 5
    - Vector1_7ABD5AC5: 0.5
    - Vector1_B80937A5: -0.1
    - Vector1_E4CC38DB: 0
    - _AO_Strength: 0.25
    - _BackLight_Strength: 1
    - _ColorFalloff: 0.5
    - _CoreDarkness: -0.25
    - _EdgeBrightness: 1
    - _FuzzyPower: 2
    - _HeigthOffset: -0.5
    - _NoisePower: 0
    - _NoiseStrength: 0.5
    - _NoiseTiling: 5
    - _Noise_Strength: 0.45
    - _RimPower: 0.1
    m_Colors:
    - Color_171CFD5E: {r: 1, g: 1, b: 1, a: 1}
    - Color_243C1702: {r: 0.6666667, g: 0.63529414, b: 0.69803923, a: 1}
    - _Color: {r: 0.98823535, g: 0.96470594, b: 0.98823535, a: 1}
    - _RimColor: {r: 0, g: 0, b: 0, a: 0}
    - _SecColor: {r: 0.8962264, g: 0.8074493, b: 0.82809514, a: 1}
