%YAML 1.1
%TAG !u! tag:unity3d.com,2011:
--- !u!1001 &3872987454001811183
PrefabInstance:
  m_ObjectHideFlags: 0
  serializedVersion: 2
  m_Modification:
    m_TransformParent: {fileID: 0}
    m_Modifications:
    - target: {fileID: 3044018788924325461, guid: d2429719687235a449dc2aedf070fa66,
        type: 3}
      propertyPath: m_Name
      value: Cloud_L_03
      objectReference: {fileID: 0}
    - target: {fileID: 7086429223011783091, guid: d2429719687235a449dc2aedf070fa66,
        type: 3}
      propertyPath: m_LocalPosition.x
      value: 20
      objectReference: {fileID: 0}
    - target: {fileID: 7086429223011783091, guid: d2429719687235a449dc2aedf070fa66,
        type: 3}
      propertyPath: m_LocalPosition.y
      value: 0
      objectReference: {fileID: 0}
    - target: {fileID: 7086429223011783091, guid: d2429719687235a449dc2aedf070fa66,
        type: 3}
      propertyPath: m_LocalPosition.z
      value: 0
      objectReference: {fileID: 0}
    - target: {fileID: 7086429223011783091, guid: d2429719687235a449dc2aedf070fa66,
        type: 3}
      propertyPath: m_LocalRotation.x
      value: -0
      objectReference: {fileID: 0}
    - target: {fileID: 7086429223011783091, guid: d2429719687235a449dc2aedf070fa66,
        type: 3}
      propertyPath: m_LocalRotation.y
      value: -0
      objectReference: {fileID: 0}
    - target: {fileID: 7086429223011783091, guid: d2429719687235a449dc2aedf070fa66,
        type: 3}
      propertyPath: m_LocalRotation.z
      value: -0
      objectReference: {fileID: 0}
    - target: {fileID: 7086429223011783091, guid: d2429719687235a449dc2aedf070fa66,
        type: 3}
      propertyPath: m_LocalRotation.w
      value: 1
      objectReference: {fileID: 0}
    - target: {fileID: 7086429223011783091, guid: d2429719687235a449dc2aedf070fa66,
        type: 3}
      propertyPath: m_RootOrder
      value: 2
      objectReference: {fileID: 0}
    - target: {fileID: 7086429223011783091, guid: d2429719687235a449dc2aedf070fa66,
        type: 3}
      propertyPath: m_LocalEulerAnglesHint.x
      value: 0
      objectReference: {fileID: 0}
    - target: {fileID: 7086429223011783091, guid: d2429719687235a449dc2aedf070fa66,
        type: 3}
      propertyPath: m_LocalEulerAnglesHint.y
      value: 0
      objectReference: {fileID: 0}
    - target: {fileID: 7086429223011783091, guid: d2429719687235a449dc2aedf070fa66,
        type: 3}
      propertyPath: m_LocalEulerAnglesHint.z
      value: 0
      objectReference: {fileID: 0}
    - target: {fileID: 8220705517637161168, guid: d2429719687235a449dc2aedf070fa66,
        type: 3}
      propertyPath: m_Materials.Array.data[0]
      value: 
      objectReference: {fileID: 2100000, guid: 7a00a40bd867ad6418761d06283da8b1, type: 2}
    - target: {fileID: 7753210229033473315, guid: d2429719687235a449dc2aedf070fa66,
        type: 3}
      propertyPath: m_RootOrder
      value: 0
      objectReference: {fileID: 0}
    - target: {fileID: 7753210229033473315, guid: d2429719687235a449dc2aedf070fa66,
        type: 3}
      propertyPath: m_LocalPosition.x
      value: 20
      objectReference: {fileID: 0}
    - target: {fileID: 5154398395152777688, guid: d2429719687235a449dc2aedf070fa66,
        type: 3}
      propertyPath: m_Materials.Array.data[0]
      value: 
      objectReference: {fileID: 2100000, guid: 7a00a40bd867ad6418761d06283da8b1, type: 2}
    - target: {fileID: 529199670866116588, guid: d2429719687235a449dc2aedf070fa66,
        type: 3}
      propertyPath: m_Name
      value: Cloud_L_03 Variant
      objectReference: {fileID: 0}
    m_RemovedComponents: []
  m_SourcePrefab: {fileID: 100100000, guid: d2429719687235a449dc2aedf070fa66, type: 3}
