%YAML 1.1
%TAG !u! tag:unity3d.com,2011:
--- !u!1001 &8242796812836479801
PrefabInstance:
  m_ObjectHideFlags: 0
  serializedVersion: 2
  m_Modification:
    m_TransformParent: {fileID: 0}
    m_Modifications:
    - target: {fileID: 8537309995388738850, guid: 3b553a4914e2aad43ad6be5796a29374,
        type: 3}
      propertyPath: m_Name
      value: Cloud_L_01
      objectReference: {fileID: 0}
    - target: {fileID: 6817526899128984637, guid: 3b553a4914e2aad43ad6be5796a29374,
        type: 3}
      propertyPath: m_LocalPosition.x
      value: 0
      objectReference: {fileID: 0}
    - target: {fileID: 6817526899128984637, guid: 3b553a4914e2aad43ad6be5796a29374,
        type: 3}
      propertyPath: m_LocalPosition.y
      value: 0
      objectReference: {fileID: 0}
    - target: {fileID: 6817526899128984637, guid: 3b553a4914e2aad43ad6be5796a29374,
        type: 3}
      propertyPath: m_LocalPosition.z
      value: 0
      objectReference: {fileID: 0}
    - target: {fileID: 6817526899128984637, guid: 3b553a4914e2aad43ad6be5796a29374,
        type: 3}
      propertyPath: m_LocalRotation.x
      value: -0
      objectReference: {fileID: 0}
    - target: {fileID: 6817526899128984637, guid: 3b553a4914e2aad43ad6be5796a29374,
        type: 3}
      propertyPath: m_LocalRotation.y
      value: -0
      objectReference: {fileID: 0}
    - target: {fileID: 6817526899128984637, guid: 3b553a4914e2aad43ad6be5796a29374,
        type: 3}
      propertyPath: m_LocalRotation.z
      value: -0
      objectReference: {fileID: 0}
    - target: {fileID: 6817526899128984637, guid: 3b553a4914e2aad43ad6be5796a29374,
        type: 3}
      propertyPath: m_LocalRotation.w
      value: 1
      objectReference: {fileID: 0}
    - target: {fileID: 6817526899128984637, guid: 3b553a4914e2aad43ad6be5796a29374,
        type: 3}
      propertyPath: m_RootOrder
      value: 0
      objectReference: {fileID: 0}
    - target: {fileID: 6817526899128984637, guid: 3b553a4914e2aad43ad6be5796a29374,
        type: 3}
      propertyPath: m_LocalEulerAnglesHint.x
      value: 0
      objectReference: {fileID: 0}
    - target: {fileID: 6817526899128984637, guid: 3b553a4914e2aad43ad6be5796a29374,
        type: 3}
      propertyPath: m_LocalEulerAnglesHint.y
      value: 0
      objectReference: {fileID: 0}
    - target: {fileID: 6817526899128984637, guid: 3b553a4914e2aad43ad6be5796a29374,
        type: 3}
      propertyPath: m_LocalEulerAnglesHint.z
      value: 0
      objectReference: {fileID: 0}
    - target: {fileID: 7437081069385832913, guid: 3b553a4914e2aad43ad6be5796a29374,
        type: 3}
      propertyPath: m_Materials.Array.data[0]
      value: 
      objectReference: {fileID: 2100000, guid: 39a218570dc1b8a4fabe6fe305f3c67c, type: 2}
    - target: {fileID: 6289856312414789418, guid: 3b553a4914e2aad43ad6be5796a29374,
        type: 3}
      propertyPath: m_Materials.Array.data[0]
      value: 
      objectReference: {fileID: 2100000, guid: 39a218570dc1b8a4fabe6fe305f3c67c, type: 2}
    - target: {fileID: 1879337038022187020, guid: 3b553a4914e2aad43ad6be5796a29374,
        type: 3}
      propertyPath: m_Name
      value: Cloud_L_01 Variant
      objectReference: {fileID: 0}
    m_RemovedComponents: []
  m_SourcePrefab: {fileID: 100100000, guid: 3b553a4914e2aad43ad6be5796a29374, type: 3}
